install.packages('pysch')
library('pysch')
library(psych)
search()
ratings<-read.table("/Users/chadmaughan/workspaces/coursera/statistics-one/r-intro/STATS1.EX.01.TXT",header=T)
class(ratings)
names(ratings)
hist(RedTruck)
hist(ratings$RedTruck)
layout(matrix(c(1,2,3,4),2,2,byrow=TRUE))
hist(ratings$WoopWoop,xlab="Rating")
hist(ratings$RedTruck,xlab="Rating")
hist(ratings$HobNob,xlab="Rating")
hist(ratings$FourPlay,xlab="Rating")
describe(ratings)
log<-read.table("/Users/chadmaughan/Desktop/VPUSER_CLIENT_LOG.csv", sep=",", header=T)
help(factor)
log$BROWSER <- factor(log$BROWSER)
View(log)
hist(log$BROWSER)
log
sapply(log, mode)
sapply(log, class)
transform(log, BROWSWER = as.numeric(BROWSER))
sapply(log, class)
getOption("max.print")
max.print = 50000
getOption("max.print")
.Options$max.print <- 50000
getOption("max.print")
options(max.print=50000)
getOption("max.print")
transform(log, BROWSWER = as.numeric(BROWSER))
getOption("max.print")
log
?options
transform(log, BROWSWER = as.numeric(BROWSER))
sink(file="/tmp/r-out.txt")
transform(log, BROWSWER = as.numeric(BROWSER))
sapply(log, class)
sink(null)
sink(NULL)
sapply(log, class)
sink(file="/tmp/r-out.txt")
newLog <- transform(log, BROWSWER = as.numeric(BROWSER))
head(newLog)
sink(NULL)
head(newLog)
sapply(newLog, class)
sink(file="/tmp/r-out.txt")
newLog <- transform(log, BROWSER = as.numeric(BROWSER))
sapply(newLog, class)
sink(NULL)
sapply(newLog, class)
hist(newLog$BROWSER)
b <- as.vector(newLog$BROWSER)
View(b)
browsers <- as.factor(newLog$BROWSER)
sink(NULL)
browsers
head(log)
browsers <- as.factor(log$BROWSER)
browsers
hist(browsers)
b = factor(newLog$BROWSERS)
table(b)
b
b = factor(newLog$BROWSERS)
b
head(newLog)
b = factor(log$BROWSERS)
table(b)
b
head(log)
clog <- transform(log, C_BROWSER = as.character(BROWSER))
head(clog)
hist(clog$C_BROWSER)
sapply(clog, class)
help(as.Date)
help(ISODateTime)
help(ISOdatetime)
help(as.Date)
format(Sys.Date(), "%a %b %d")
mydate = strptime('16/Oct/2005:07:51:00',format='%d/%b/%Y:%H:%M:%S')
mydate
clog <- transform(log, C_TIME = strptime(TIME, format='%m/%d/%Y %H:%M:%OS %p'))
clog$C_TIME
clog[order(clog$BROWSER),]
hist(clog$C_TIME)
barplot(clog$BROWSER)
counts <- table(clog$BROWSER)
counts
barplot(counts)
library(psych)#
#
# read in the sample wine data into a 'data.frame'#
data<-read.table("/Users/chadmaughan/workspaces/coursera/statistics-one/as1/DAA.01.txt",header=T)
dat
data
head(aer)
head(data)
hist(data#cond)
asdf
hist(data$cond)
View(data)
describe(data$cond)
describe(data$pre.wm.s)
for ( i in seq(1,length( data ),1) ) describe(data[,i])
for ( i in seq(1,length( data ),1) ) if(i > 0) describe(data[,i])
for ( i in seq(1,length( data ),1) ) if(i > 1) describe(data[,i])
for(i in seq(1, length(data), 1)) print i
names(data)
for(i in names(data)) describe(i)
hist(data$wm.s)
help(c)
help(matrix)
(data$wm.s)describe
describe(data$wm.s)
library(psych)#
#
# read in the sample wine data into a 'data.frame'#
data<-read.table("/Users/chadmaughan/workspaces/coursera/statistics-one/as1/DAA.01.txt",header=T)
data
head(data)
hist(data$pre.wm.v)
q()
